Lab-7/Lab-7.sim/sim_1/behav/xsim/simulate.log
Time resolution is 1 ps
simtime = 0, CLK = 0, J = 0, K = 0, Q = x, QBAR = x
simtime = 10, CLK = 1, J = 0, K = 0, Q = x, QBAR = x
simtime = 20, CLK = 0, J = 0, K = 0, Q = x, QBAR = x
simtime = 30, CLK = 1, J = 0, K = 0, Q = x, QBAR = x
simtime = 40, CLK = 0, J = 0, K = 0, Q = x, QBAR = x
simtime = 50, CLK = 1, J = 0, K = 0, Q = x, QBAR = x
simtime = 60, CLK = 0, J = 0, K = 0, Q = x, QBAR = x
simtime = 70, CLK = 1, J = 0, K = 0, Q = x, QBAR = x
simtime = 80, CLK = 0, J = 0, K = 0, Q = x, QBAR = x
simtime = 90, CLK = 1, J = 0, K = 0, Q = x, QBAR = x
simtime = 100, CLK = 0, J = 0, K = 1, Q = x, QBAR = x
simtime = 100, CLK = 0, J = 0, K = 1, Q = x, QBAR = x
simtime = 110, CLK = 1, J = 0, K = 1, Q = 0, QBAR = 1
simtime = 110, CLK = 1, J = 0, K = 1, Q = 0, QBAR = 1
simtime = 120, CLK = 0, J = 0, K = 1, Q = 0, QBAR = 1
simtime = 120, CLK = 0, J = 0, K = 1, Q = 0, QBAR = 1
simtime = 130, CLK = 1, J = 0, K = 1, Q = 0, QBAR = 1
simtime = 130, CLK = 1, J = 0, K = 1, Q = 0, QBAR = 1
simtime = 140, CLK = 0, J = 0, K = 1, Q = 0, QBAR = 1
simtime = 140, CLK = 0, J = 0, K = 1, Q = 0, QBAR = 1
simtime = 150, CLK = 1, J = 0, K = 1, Q = 0, QBAR = 1
simtime = 150, CLK = 1, J = 0, K = 1, Q = 0, QBAR = 1
simtime = 160, CLK = 0, J = 0, K = 1, Q = 0, QBAR = 1
simtime = 160, CLK = 0, J = 0, K = 1, Q = 0, QBAR = 1
simtime = 170, CLK = 1, J = 0, K = 1, Q = 0, QBAR = 1
simtime = 170, CLK = 1, J = 0, K = 1, Q = 0, QBAR = 1
simtime = 180, CLK = 0, J = 0, K = 1, Q = 0, QBAR = 1
simtime = 180, CLK = 0, J = 0, K = 1, Q = 0, QBAR = 1
simtime = 190, CLK = 1, J = 0, K = 1, Q = 0, QBAR = 1
simtime = 190, CLK = 1, J = 0, K = 1, Q = 0, QBAR = 1
simtime = 200, CLK = 0, J = 1, K = 1, Q = 0, QBAR = 1
simtime = 200, CLK = 0, J = 1, K = 1, Q = 0, QBAR = 1
simtime = 200, CLK = 0, J = 1, K = 1, Q = 0, QBAR = 1
simtime = 210, CLK = 1, J = 1, K = 1, Q = 0, QBAR = 1
simtime = 210, CLK = 1, J = 1, K = 1, Q = 0, QBAR = 1
simtime = 210, CLK = 1, J = 1, K = 1, Q = 0, QBAR = 1
simtime = 220, CLK = 0, J = 1, K = 1, Q = 0, QBAR = 1
simtime = 220, CLK = 0, J = 1, K = 1, Q = 0, QBAR = 1
simtime = 220, CLK = 0, J = 1, K = 1, Q = 0, QBAR = 1
simtime = 230, CLK = 1, J = 1, K = 1, Q = 0, QBAR = 1
simtime = 230, CLK = 1, J = 1, K = 1, Q = 0, QBAR = 1
simtime = 230, CLK = 1, J = 1, K = 1, Q = 0, QBAR = 1
simtime = 240, CLK = 0, J = 1, K = 1, Q = 0, QBAR = 1
simtime = 240, CLK = 0, J = 1, K = 1, Q = 0, QBAR = 1
simtime = 240, CLK = 0, J = 1, K = 1, Q = 0, QBAR = 1
simtime = 250, CLK = 1, J = 1, K = 1, Q = 0, QBAR = 1
simtime = 250, CLK = 1, J = 1, K = 1, Q = 0, QBAR = 1
simtime = 250, CLK = 1, J = 1, K = 1, Q = 0, QBAR = 1
simtime = 260, CLK = 0, J = 1, K = 1, Q = 0, QBAR = 1
simtime = 260, CLK = 0, J = 1, K = 1, Q = 0, QBAR = 1
simtime = 260, CLK = 0, J = 1, K = 1, Q = 0, QBAR = 1
simtime = 270, CLK = 1, J = 1, K = 1, Q = 0, QBAR = 1
simtime = 270, CLK = 1, J = 1, K = 1, Q = 0, QBAR = 1
simtime = 270, CLK = 1, J = 1, K = 1, Q = 0, QBAR = 1
simtime = 280, CLK = 0, J = 1, K = 1, Q = 0, QBAR = 1
simtime = 280, CLK = 0, J = 1, K = 1, Q = 0, QBAR = 1
simtime = 280, CLK = 0, J = 1, K = 1, Q = 0, QBAR = 1
simtime = 290, CLK = 1, J = 1, K = 1, Q = 0, QBAR = 1
simtime = 290, CLK = 1, J = 1, K = 1, Q = 0, QBAR = 1
simtime = 290, CLK = 1, J = 1, K = 1, Q = 0, QBAR = 1
simtime = 300, CLK = 0, J = 1, K = 0, Q = 0, QBAR = 1
simtime = 300, CLK = 0, J = 1, K = 0, Q = 0, QBAR = 1
simtime = 300, CLK = 0, J = 1, K = 0, Q = 0, QBAR = 1
simtime = 300, CLK = 0, J = 1, K = 0, Q = 0, QBAR = 1
simtime = 310, CLK = 1, J = 1, K = 0, Q = 1, QBAR = 0
simtime = 310, CLK = 1, J = 1, K = 0, Q = 1, QBAR = 0
simtime = 310, CLK = 1, J = 1, K = 0, Q = 1, QBAR = 0
simtime = 310, CLK = 1, J = 1, K = 0, Q = 1, QBAR = 0
simtime = 320, CLK = 0, J = 1, K = 0, Q = 1, QBAR = 0
simtime = 320, CLK = 0, J = 1, K = 0, Q = 1, QBAR = 0
simtime = 320, CLK = 0, J = 1, K = 0, Q = 1, QBAR = 0
simtime = 320, CLK = 0, J = 1, K = 0, Q = 1, QBAR = 0
simtime = 330, CLK = 1, J = 1, K = 0, Q = 1, QBAR = 0
simtime = 330, CLK = 1, J = 1, K = 0, Q = 1, QBAR = 0
simtime = 330, CLK = 1, J = 1, K = 0, Q = 1, QBAR = 0
simtime = 330, CLK = 1, J = 1, K = 0, Q = 1, QBAR = 0
simtime = 340, CLK = 0, J = 1, K = 0, Q = 1, QBAR = 0
simtime = 340, CLK = 0, J = 1, K = 0, Q = 1, QBAR = 0
simtime = 340, CLK = 0, J = 1, K = 0, Q = 1, QBAR = 0
simtime = 340, CLK = 0, J = 1, K = 0, Q = 1, QBAR = 0
simtime = 350, CLK = 1, J = 1, K = 0, Q = 1, QBAR = 0
simtime = 350, CLK = 1, J = 1, K = 0, Q = 1, QBAR = 0
simtime = 350, CLK = 1, J = 1, K = 0, Q = 1, QBAR = 0
simtime = 350, CLK = 1, J = 1, K = 0, Q = 1, QBAR = 0
simtime = 360, CLK = 0, J = 1, K = 0, Q = 1, QBAR = 0
simtime = 360, CLK = 0, J = 1, K = 0, Q = 1, QBAR = 0
simtime = 360, CLK = 0, J = 1, K = 0, Q = 1, QBAR = 0
simtime = 360, CLK = 0, J = 1, K = 0, Q = 1, QBAR = 0
simtime = 370, CLK = 1, J = 1, K = 0, Q = 1, QBAR = 0
simtime = 370, CLK = 1, J = 1, K = 0, Q = 1, QBAR = 0
simtime = 370, CLK = 1, J = 1, K = 0, Q = 1, QBAR = 0
simtime = 370, CLK = 1, J = 1, K = 0, Q = 1, QBAR = 0
simtime = 380, CLK = 0, J = 1, K = 0, Q = 1, QBAR = 0
simtime = 380, CLK = 0, J = 1, K = 0, Q = 1, QBAR = 0
simtime = 380, CLK = 0, J = 1, K = 0, Q = 1, QBAR = 0
simtime = 380, CLK = 0, J = 1, K = 0, Q = 1, QBAR = 0
simtime = 390, CLK = 1, J = 1, K = 0, Q = 1, QBAR = 0
simtime = 390, CLK = 1, J = 1, K = 0, Q = 1, QBAR = 0
simtime = 390, CLK = 1, J = 1, K = 0, Q = 1, QBAR = 0
simtime = 390, CLK = 1, J = 1, K = 0, Q = 1, QBAR = 0
simtime = 400, CLK = 0, J = 0, K = 0, Q = 1, QBAR = 0
simtime = 400, CLK = 0, J = 0, K = 0, Q = 1, QBAR = 0
simtime = 400, CLK = 0, J = 0, K = 0, Q = 1, QBAR = 0
simtime = 400, CLK = 0, J = 0, K = 0, Q = 1, QBAR = 0
simtime = 400, CLK = 0, J = 0, K = 0, Q = 1, QBAR = 0
simtime = 410, CLK = 1, J = 0, K = 0, Q = 1, QBAR = 0
simtime = 410, CLK = 1, J = 0, K = 0, Q = 1, QBAR = 0
simtime = 410, CLK = 1, J = 0, K = 0, Q = 1, QBAR = 0
simtime = 410, CLK = 1, J = 0, K = 0, Q = 1, QBAR = 0
simtime = 410, CLK = 1, J = 0, K = 0, Q = 1, QBAR = 0
simtime = 420, CLK = 0, J = 0, K = 0, Q = 1, QBAR = 0
simtime = 420, CLK = 0, J = 0, K = 0, Q = 1, QBAR = 0
simtime = 420, CLK = 0, J = 0, K = 0, Q = 1, QBAR = 0
simtime = 420, CLK = 0, J = 0, K = 0, Q = 1, QBAR = 0
simtime = 420, CLK = 0, J = 0, K = 0, Q = 1, QBAR = 0
simtime = 430, CLK = 1, J = 0, K = 0, Q = 1, QBAR = 0
simtime = 430, CLK = 1, J = 0, K = 0, Q = 1, QBAR = 0
simtime = 430, CLK = 1, J = 0, K = 0, Q = 1, QBAR = 0
simtime = 430, CLK = 1, J = 0, K = 0, Q = 1, QBAR = 0
simtime = 430, CLK = 1, J = 0, K = 0, Q = 1, QBAR = 0
simtime = 440, CLK = 0, J = 0, K = 0, Q = 1, QBAR = 0
simtime = 440, CLK = 0, J = 0, K = 0, Q = 1, QBAR = 0
simtime = 440, CLK = 0, J = 0, K = 0, Q = 1, QBAR = 0
simtime = 440, CLK = 0, J = 0, K = 0, Q = 1, QBAR = 0
simtime = 440, CLK = 0, J = 0, K = 0, Q = 1, QBAR = 0
simtime = 450, CLK = 1, J = 0, K = 0, Q = 1, QBAR = 0
simtime = 450, CLK = 1, J = 0, K = 0, Q = 1, QBAR = 0
simtime = 450, CLK = 1, J = 0, K = 0, Q = 1, QBAR = 0
simtime = 450, CLK = 1, J = 0, K = 0, Q = 1, QBAR = 0
simtime = 450, CLK = 1, J = 0, K = 0, Q = 1, QBAR = 0
simtime = 460, CLK = 0, J = 0, K = 0, Q = 1, QBAR = 0
simtime = 460, CLK = 0, J = 0, K = 0, Q = 1, QBAR = 0
simtime = 460, CLK = 0, J = 0, K = 0, Q = 1, QBAR = 0
simtime = 460, CLK = 0, J = 0, K = 0, Q = 1, QBAR = 0
simtime = 460, CLK = 0, J = 0, K = 0, Q = 1, QBAR = 0
simtime = 470, CLK = 1, J = 0, K = 0, Q = 1, QBAR = 0
simtime = 470, CLK = 1, J = 0, K = 0, Q = 1, QBAR = 0
simtime = 470, CLK = 1, J = 0, K = 0, Q = 1, QBAR = 0
simtime = 470, CLK = 1, J = 0, K = 0, Q = 1, QBAR = 0
simtime = 470, CLK = 1, J = 0, K = 0, Q = 1, QBAR = 0
simtime = 480, CLK = 0, J = 0, K = 0, Q = 1, QBAR = 0
simtime = 480, CLK = 0, J = 0, K = 0, Q = 1, QBAR = 0
simtime = 480, CLK = 0, J = 0, K = 0, Q = 1, QBAR = 0
simtime = 480, CLK = 0, J = 0, K = 0, Q = 1, QBAR = 0
simtime = 480, CLK = 0, J = 0, K = 0, Q = 1, QBAR = 0
simtime = 490, CLK = 1, J = 0, K = 0, Q = 1, QBAR = 0
simtime = 490, CLK = 1, J = 0, K = 0, Q = 1, QBAR = 0
simtime = 490, CLK = 1, J = 0, K = 0, Q = 1, QBAR = 0
simtime = 490, CLK = 1, J = 0, K = 0, Q = 1, QBAR = 0
simtime = 490, CLK = 1, J = 0, K = 0, Q = 1, QBAR = 0
simtime = 500, CLK = 0, J = 0, K = 0, Q = 1, QBAR = 0
simtime = 500, CLK = 0, J = 0, K = 0, Q = 1, QBAR = 0
simtime = 500, CLK = 0, J = 0, K = 0, Q = 1, QBAR = 0
simtime = 500, CLK = 0, J = 0, K = 0, Q = 1, QBAR = 0
simtime = 500, CLK = 0, J = 0, K = 0, Q = 1, QBAR = 0
simtime = 510, CLK = 1, J = 0, K = 0, Q = 1, QBAR = 0
simtime = 510, CLK = 1, J = 0, K = 0, Q = 1, QBAR = 0
simtime = 510, CLK = 1, J = 0, K = 0, Q = 1, QBAR = 0
simtime = 510, CLK = 1, J = 0, K = 0, Q = 1, QBAR = 0
simtime = 510, CLK = 1, J = 0, K = 0, Q = 1, QBAR = 0
simtime = 520, CLK = 0, J = 0, K = 0, Q = 1, QBAR = 0
simtime = 520, CLK = 0, J = 0, K = 0, Q = 1, QBAR = 0
simtime = 520, CLK = 0, J = 0, K = 0, Q = 1, QBAR = 0
simtime = 520, CLK = 0, J = 0, K = 0, Q = 1, QBAR = 0
simtime = 520, CLK = 0, J = 0, K = 0, Q = 1, QBAR = 0
simtime = 530, CLK = 1, J = 0, K = 0, Q = 1, QBAR = 0
simtime = 530, CLK = 1, J = 0, K = 0, Q = 1, QBAR = 0
simtime = 530, CLK = 1, J = 0, K = 0, Q = 1, QBAR = 0
simtime = 530, CLK = 1, J = 0, K = 0, Q = 1, QBAR = 0
simtime = 530, CLK = 1, J = 0, K = 0, Q = 1, QBAR = 0
simtime = 540, CLK = 0, J = 0, K = 0, Q = 1, QBAR = 0
simtime = 540, CLK = 0, J = 0, K = 0, Q = 1, QBAR = 0
simtime = 540, CLK = 0, J = 0, K = 0, Q = 1, QBAR = 0
simtime = 540, CLK = 0, J = 0, K = 0, Q = 1, QBAR = 0
simtime = 540, CLK = 0, J = 0, K = 0, Q = 1, QBAR = 0
simtime = 550, CLK = 1, J = 0, K = 0, Q = 1, QBAR = 0
simtime = 550, CLK = 1, J = 0, K = 0, Q = 1, QBAR = 0
simtime = 550, CLK = 1, J = 0, K = 0, Q = 1, QBAR = 0
simtime = 550, CLK = 1, J = 0, K = 0, Q = 1, QBAR = 0
simtime = 550, CLK = 1, J = 0, K = 0, Q = 1, QBAR = 0
simtime = 560, CLK = 0, J = 0, K = 0, Q = 1, QBAR = 0
simtime = 560, CLK = 0, J = 0, K = 0, Q = 1, QBAR = 0
simtime = 560, CLK = 0, J = 0, K = 0, Q = 1, QBAR = 0
simtime = 560, CLK = 0, J = 0, K = 0, Q = 1, QBAR = 0
simtime = 560, CLK = 0, J = 0, K = 0, Q = 1, QBAR = 0
simtime = 570, CLK = 1, J = 0, K = 0, Q = 1, QBAR = 0
simtime = 570, CLK = 1, J = 0, K = 0, Q = 1, QBAR = 0
simtime = 570, CLK = 1, J = 0, K = 0, Q = 1, QBAR = 0
simtime = 570, CLK = 1, J = 0, K = 0, Q = 1, QBAR = 0
simtime = 570, CLK = 1, J = 0, K = 0, Q = 1, QBAR = 0
simtime = 580, CLK = 0, J = 0, K = 0, Q = 1, QBAR = 0
simtime = 580, CLK = 0, J = 0, K = 0, Q = 1, QBAR = 0
simtime = 580, CLK = 0, J = 0, K = 0, Q = 1, QBAR = 0
simtime = 580, CLK = 0, J = 0, K = 0, Q = 1, QBAR = 0
simtime = 580, CLK = 0, J = 0, K = 0, Q = 1, QBAR = 0
simtime = 590, CLK = 1, J = 0, K = 0, Q = 1, QBAR = 0
simtime = 590, CLK = 1, J = 0, K = 0, Q = 1, QBAR = 0
simtime = 590, CLK = 1, J = 0, K = 0, Q = 1, QBAR = 0
simtime = 590, CLK = 1, J = 0, K = 0, Q = 1, QBAR = 0
simtime = 590, CLK = 1, J = 0, K = 0, Q = 1, QBAR = 0
simtime = 600, CLK = 0, J = 0, K = 0, Q = 1, QBAR = 0
simtime = 600, CLK = 0, J = 0, K = 0, Q = 1, QBAR = 0
simtime = 600, CLK = 0, J = 0, K = 0, Q = 1, QBAR = 0
simtime = 600, CLK = 0, J = 0, K = 0, Q = 1, QBAR = 0
simtime = 600, CLK = 0, J = 0, K = 0, Q = 1, QBAR = 0
simtime = 610, CLK = 1, J = 0, K = 0, Q = 1, QBAR = 0
simtime = 610, CLK = 1, J = 0, K = 0, Q = 1, QBAR = 0
simtime = 610, CLK = 1, J = 0, K = 0, Q = 1, QBAR = 0
simtime = 610, CLK = 1, J = 0, K = 0, Q = 1, QBAR = 0
simtime = 610, CLK = 1, J = 0, K = 0, Q = 1, QBAR = 0
simtime = 620, CLK = 0, J = 0, K = 0, Q = 1, QBAR = 0
simtime = 620, CLK = 0, J = 0, K = 0, Q = 1, QBAR = 0
simtime = 620, CLK = 0, J = 0, K = 0, Q = 1, QBAR = 0
simtime = 620, CLK = 0, J = 0, K = 0, Q = 1, QBAR = 0
simtime = 620, CLK = 0, J = 0, K = 0, Q = 1, QBAR = 0
simtime = 630, CLK = 1, J = 0, K = 0, Q = 1, QBAR = 0
simtime = 630, CLK = 1, J = 0, K = 0, Q = 1, QBAR = 0
simtime = 630, CLK = 1, J = 0, K = 0, Q = 1, QBAR = 0
simtime = 630, CLK = 1, J = 0, K = 0, Q = 1, QBAR = 0
simtime = 630, CLK = 1, J = 0, K = 0, Q = 1, QBAR = 0
simtime = 640, CLK = 0, J = 0, K = 0, Q = 1, QBAR = 0
simtime = 640, CLK = 0, J = 0, K = 0, Q = 1, QBAR = 0
simtime = 640, CLK = 0, J = 0, K = 0, Q = 1, QBAR = 0
simtime = 640, CLK = 0, J = 0, K = 0, Q = 1, QBAR = 0
simtime = 640, CLK = 0, J = 0, K = 0, Q = 1, QBAR = 0
simtime = 650, CLK = 1, J = 0, K = 0, Q = 1, QBAR = 0
simtime = 650, CLK = 1, J = 0, K = 0, Q = 1, QBAR = 0
simtime = 650, CLK = 1, J = 0, K = 0, Q = 1, QBAR = 0
simtime = 650, CLK = 1, J = 0, K = 0, Q = 1, QBAR = 0
simtime = 650, CLK = 1, J = 0, K = 0, Q = 1, QBAR = 0
simtime = 660, CLK = 0, J = 0, K = 0, Q = 1, QBAR = 0
simtime = 660, CLK = 0, J = 0, K = 0, Q = 1, QBAR = 0
simtime = 660, CLK = 0, J = 0, K = 0, Q = 1, QBAR = 0
simtime = 660, CLK = 0, J = 0, K = 0, Q = 1, QBAR = 0
simtime = 660, CLK = 0, J = 0, K = 0, Q = 1, QBAR = 0
simtime = 670, CLK = 1, J = 0, K = 0, Q = 1, QBAR = 0
simtime = 670, CLK = 1, J = 0, K = 0, Q = 1, QBAR = 0
simtime = 670, CLK = 1, J = 0, K = 0, Q = 1, QBAR = 0
simtime = 670, CLK = 1, J = 0, K = 0, Q = 1, QBAR = 0
simtime = 670, CLK = 1, J = 0, K = 0, Q = 1, QBAR = 0
simtime = 680, CLK = 0, J = 0, K = 0, Q = 1, QBAR = 0
simtime = 680, CLK = 0, J = 0, K = 0, Q = 1, QBAR = 0
simtime = 680, CLK = 0, J = 0, K = 0, Q = 1, QBAR = 0
simtime = 680, CLK = 0, J = 0, K = 0, Q = 1, QBAR = 0
simtime = 680, CLK = 0, J = 0, K = 0, Q = 1, QBAR = 0
simtime = 690, CLK = 1, J = 0, K = 0, Q = 1, QBAR = 0
simtime = 690, CLK = 1, J = 0, K = 0, Q = 1, QBAR = 0
simtime = 690, CLK = 1, J = 0, K = 0, Q = 1, QBAR = 0
simtime = 690, CLK = 1, J = 0, K = 0, Q = 1, QBAR = 0
simtime = 690, CLK = 1, J = 0, K = 0, Q = 1, QBAR = 0
simtime = 700, CLK = 0, J = 0, K = 0, Q = 1, QBAR = 0
simtime = 700, CLK = 0, J = 0, K = 0, Q = 1, QBAR = 0
simtime = 700, CLK = 0, J = 0, K = 0, Q = 1, QBAR = 0
simtime = 700, CLK = 0, J = 0, K = 0, Q = 1, QBAR = 0
simtime = 700, CLK = 0, J = 0, K = 0, Q = 1, QBAR = 0
simtime = 710, CLK = 1, J = 0, K = 0, Q = 1, QBAR = 0
simtime = 710, CLK = 1, J = 0, K = 0, Q = 1, QBAR = 0
simtime = 710, CLK = 1, J = 0, K = 0, Q = 1, QBAR = 0
simtime = 710, CLK = 1, J = 0, K = 0, Q = 1, QBAR = 0
simtime = 710, CLK = 1, J = 0, K = 0, Q = 1, QBAR = 0
simtime = 720, CLK = 0, J = 0, K = 0, Q = 1, QBAR = 0
simtime = 720, CLK = 0, J = 0, K = 0, Q = 1, QBAR = 0
simtime = 720, CLK = 0, J = 0, K = 0, Q = 1, QBAR = 0
simtime = 720, CLK = 0, J = 0, K = 0, Q = 1, QBAR = 0
simtime = 720, CLK = 0, J = 0, K = 0, Q = 1, QBAR = 0
simtime = 730, CLK = 1, J = 0, K = 0, Q = 1, QBAR = 0
simtime = 730, CLK = 1, J = 0, K = 0, Q = 1, QBAR = 0
simtime = 730, CLK = 1, J = 0, K = 0, Q = 1, QBAR = 0
simtime = 730, CLK = 1, J = 0, K = 0, Q = 1, QBAR = 0
simtime = 730, CLK = 1, J = 0, K = 0, Q = 1, QBAR = 0
simtime = 740, CLK = 0, J = 0, K = 0, Q = 1, QBAR = 0
simtime = 740, CLK = 0, J = 0, K = 0, Q = 1, QBAR = 0
simtime = 740, CLK = 0, J = 0, K = 0, Q = 1, QBAR = 0
simtime = 740, CLK = 0, J = 0, K = 0, Q = 1, QBAR = 0
simtime = 740, CLK = 0, J = 0, K = 0, Q = 1, QBAR = 0
simtime = 750, CLK = 1, J = 0, K = 0, Q = 1, QBAR = 0
simtime = 750, CLK = 1, J = 0, K = 0, Q = 1, QBAR = 0
simtime = 750, CLK = 1, J = 0, K = 0, Q = 1, QBAR = 0
simtime = 750, CLK = 1, J = 0, K = 0, Q = 1, QBAR = 0
simtime = 750, CLK = 1, J = 0, K = 0, Q = 1, QBAR = 0
simtime = 760, CLK = 0, J = 0, K = 0, Q = 1, QBAR = 0
simtime = 760, CLK = 0, J = 0, K = 0, Q = 1, QBAR = 0
simtime = 760, CLK = 0, J = 0, K = 0, Q = 1, QBAR = 0
simtime = 760, CLK = 0, J = 0, K = 0, Q = 1, QBAR = 0
simtime = 760, CLK = 0, J = 0, K = 0, Q = 1, QBAR = 0
simtime = 770, CLK = 1, J = 0, K = 0, Q = 1, QBAR = 0
simtime = 770, CLK = 1, J = 0, K = 0, Q = 1, QBAR = 0
simtime = 770, CLK = 1, J = 0, K = 0, Q = 1, QBAR = 0
simtime = 770, CLK = 1, J = 0, K = 0, Q = 1, QBAR = 0
simtime = 770, CLK = 1, J = 0, K = 0, Q = 1, QBAR = 0
simtime = 780, CLK = 0, J = 0, K = 0, Q = 1, QBAR = 0
simtime = 780, CLK = 0, J = 0, K = 0, Q = 1, QBAR = 0
simtime = 780, CLK = 0, J = 0, K = 0, Q = 1, QBAR = 0
simtime = 780, CLK = 0, J = 0, K = 0, Q = 1, QBAR = 0
simtime = 780, CLK = 0, J = 0, K = 0, Q = 1, QBAR = 0
simtime = 790, CLK = 1, J = 0, K = 0, Q = 1, QBAR = 0
simtime = 790, CLK = 1, J = 0, K = 0, Q = 1, QBAR = 0
simtime = 790, CLK = 1, J = 0, K = 0, Q = 1, QBAR = 0
simtime = 790, CLK = 1, J = 0, K = 0, Q = 1, QBAR = 0
simtime = 790, CLK = 1, J = 0, K = 0, Q = 1, QBAR = 0
simtime = 800, CLK = 0, J = 0, K = 0, Q = 1, QBAR = 0
simtime = 800, CLK = 0, J = 0, K = 0, Q = 1, QBAR = 0
simtime = 800, CLK = 0, J = 0, K = 0, Q = 1, QBAR = 0
simtime = 800, CLK = 0, J = 0, K = 0, Q = 1, QBAR = 0
simtime = 800, CLK = 0, J = 0, K = 0, Q = 1, QBAR = 0
simtime = 810, CLK = 1, J = 0, K = 0, Q = 1, QBAR = 0
simtime = 810, CLK = 1, J = 0, K = 0, Q = 1, QBAR = 0
simtime = 810, CLK = 1, J = 0, K = 0, Q = 1, QBAR = 0
simtime = 810, CLK = 1, J = 0, K = 0, Q = 1, QBAR = 0
simtime = 810, CLK = 1, J = 0, K = 0, Q = 1, QBAR = 0
simtime = 820, CLK = 0, J = 0, K = 0, Q = 1, QBAR = 0
simtime = 820, CLK = 0, J = 0, K = 0, Q = 1, QBAR = 0
simtime = 820, CLK = 0, J = 0, K = 0, Q = 1, QBAR = 0
simtime = 820, CLK = 0, J = 0, K = 0, Q = 1, QBAR = 0
simtime = 820, CLK = 0, J = 0, K = 0, Q = 1, QBAR = 0
simtime = 830, CLK = 1, J = 0, K = 0, Q = 1, QBAR = 0
simtime = 830, CLK = 1, J = 0, K = 0, Q = 1, QBAR = 0
simtime = 830, CLK = 1, J = 0, K = 0, Q = 1, QBAR = 0
simtime = 830, CLK = 1, J = 0, K = 0, Q = 1, QBAR = 0
simtime = 830, CLK = 1, J = 0, K = 0, Q = 1, QBAR = 0
simtime = 840, CLK = 0, J = 0, K = 0, Q = 1, QBAR = 0
simtime = 840, CLK = 0, J = 0, K = 0, Q = 1, QBAR = 0
simtime = 840, CLK = 0, J = 0, K = 0, Q = 1, QBAR = 0
simtime = 840, CLK = 0, J = 0, K = 0, Q = 1, QBAR = 0
simtime = 840, CLK = 0, J = 0, K = 0, Q = 1, QBAR = 0
simtime = 850, CLK = 1, J = 0, K = 0, Q = 1, QBAR = 0
simtime = 850, CLK = 1, J = 0, K = 0, Q = 1, QBAR = 0
simtime = 850, CLK = 1, J = 0, K = 0, Q = 1, QBAR = 0
simtime = 850, CLK = 1, J = 0, K = 0, Q = 1, QBAR = 0
simtime = 850, CLK = 1, J = 0, K = 0, Q = 1, QBAR = 0
simtime = 860, CLK = 0, J = 0, K = 0, Q = 1, QBAR = 0
simtime = 860, CLK = 0, J = 0, K = 0, Q = 1, QBAR = 0
simtime = 860, CLK = 0, J = 0, K = 0, Q = 1, QBAR = 0
simtime = 860, CLK = 0, J = 0, K = 0, Q = 1, QBAR = 0
simtime = 860, CLK = 0, J = 0, K = 0, Q = 1, QBAR = 0
simtime = 870, CLK = 1, J = 0, K = 0, Q = 1, QBAR = 0
simtime = 870, CLK = 1, J = 0, K = 0, Q = 1, QBAR = 0
simtime = 870, CLK = 1, J = 0, K = 0, Q = 1, QBAR = 0
simtime = 870, CLK = 1, J = 0, K = 0, Q = 1, QBAR = 0
simtime = 870, CLK = 1, J = 0, K = 0, Q = 1, QBAR = 0
simtime = 880, CLK = 0, J = 0, K = 0, Q = 1, QBAR = 0
simtime = 880, CLK = 0, J = 0, K = 0, Q = 1, QBAR = 0
simtime = 880, CLK = 0, J = 0, K = 0, Q = 1, QBAR = 0
simtime = 880, CLK = 0, J = 0, K = 0, Q = 1, QBAR = 0
simtime = 880, CLK = 0, J = 0, K = 0, Q = 1, QBAR = 0
simtime = 890, CLK = 1, J = 0, K = 0, Q = 1, QBAR = 0
simtime = 890, CLK = 1, J = 0, K = 0, Q = 1, QBAR = 0
simtime = 890, CLK = 1, J = 0, K = 0, Q = 1, QBAR = 0
simtime = 890, CLK = 1, J = 0, K = 0, Q = 1, QBAR = 0
simtime = 890, CLK = 1, J = 0, K = 0, Q = 1, QBAR = 0
simtime = 900, CLK = 0, J = 0, K = 0, Q = 1, QBAR = 0
simtime = 900, CLK = 0, J = 0, K = 0, Q = 1, QBAR = 0
simtime = 900, CLK = 0, J = 0, K = 0, Q = 1, QBAR = 0
simtime = 900, CLK = 0, J = 0, K = 0, Q = 1, QBAR = 0
simtime = 900, CLK = 0, J = 0, K = 0, Q = 1, QBAR = 0
simtime = 910, CLK = 1, J = 0, K = 0, Q = 1, QBAR = 0
simtime = 910, CLK = 1, J = 0, K = 0, Q = 1, QBAR = 0
simtime = 910, CLK = 1, J = 0, K = 0, Q = 1, QBAR = 0
simtime = 910, CLK = 1, J = 0, K = 0, Q = 1, QBAR = 0
simtime = 910, CLK = 1, J = 0, K = 0, Q = 1, QBAR = 0
simtime = 920, CLK = 0, J = 0, K = 0, Q = 1, QBAR = 0
simtime = 920, CLK = 0, J = 0, K = 0, Q = 1, QBAR = 0
simtime = 920, CLK = 0, J = 0, K = 0, Q = 1, QBAR = 0
simtime = 920, CLK = 0, J = 0, K = 0, Q = 1, QBAR = 0
simtime = 920, CLK = 0, J = 0, K = 0, Q = 1, QBAR = 0
simtime = 930, CLK = 1, J = 0, K = 0, Q = 1, QBAR = 0
simtime = 930, CLK = 1, J = 0, K = 0, Q = 1, QBAR = 0
simtime = 930, CLK = 1, J = 0, K = 0, Q = 1, QBAR = 0
simtime = 930, CLK = 1, J = 0, K = 0, Q = 1, QBAR = 0
simtime = 930, CLK = 1, J = 0, K = 0, Q = 1, QBAR = 0
simtime = 940, CLK = 0, J = 0, K = 0, Q = 1, QBAR = 0
simtime = 940, CLK = 0, J = 0, K = 0, Q = 1, QBAR = 0
simtime = 940, CLK = 0, J = 0, K = 0, Q = 1, QBAR = 0
simtime = 940, CLK = 0, J = 0, K = 0, Q = 1, QBAR = 0
simtime = 940, CLK = 0, J = 0, K = 0, Q = 1, QBAR = 0
simtime = 950, CLK = 1, J = 0, K = 0, Q = 1, QBAR = 0
simtime = 950, CLK = 1, J = 0, K = 0, Q = 1, QBAR = 0
simtime = 950, CLK = 1, J = 0, K = 0, Q = 1, QBAR = 0
simtime = 950, CLK = 1, J = 0, K = 0, Q = 1, QBAR = 0
simtime = 950, CLK = 1, J = 0, K = 0, Q = 1, QBAR = 0
simtime = 960, CLK = 0, J = 0, K = 0, Q = 1, QBAR = 0
simtime = 960, CLK = 0, J = 0, K = 0, Q = 1, QBAR = 0
simtime = 960, CLK = 0, J = 0, K = 0, Q = 1, QBAR = 0
simtime = 960, CLK = 0, J = 0, K = 0, Q = 1, QBAR = 0
simtime = 960, CLK = 0, J = 0, K = 0, Q = 1, QBAR = 0
simtime = 970, CLK = 1, J = 0, K = 0, Q = 1, QBAR = 0
simtime = 970, CLK = 1, J = 0, K = 0, Q = 1, QBAR = 0
simtime = 970, CLK = 1, J = 0, K = 0, Q = 1, QBAR = 0
simtime = 970, CLK = 1, J = 0, K = 0, Q = 1, QBAR = 0
simtime = 970, CLK = 1, J = 0, K = 0, Q = 1, QBAR = 0
simtime = 980, CLK = 0, J = 0, K = 0, Q = 1, QBAR = 0
simtime = 980, CLK = 0, J = 0, K = 0, Q = 1, QBAR = 0
simtime = 980, CLK = 0, J = 0, K = 0, Q = 1, QBAR = 0
simtime = 980, CLK = 0, J = 0, K = 0, Q = 1, QBAR = 0
